 _______ _________ _______  _______  _______  _               _______          _________ _______
(  ____ \\__   __/(  ____ \(  ____ )(  ___  )( (    /|       (  ___  )|\     /|\__   __// ___   )
| (    \/   ) (   | (    \/| (    )|| (   ) ||  \  ( |       | (   ) || )   ( |   ) (   \/   )  |
| (_____    | |   | (__    | (____)|| (___) ||   \ | | _____ | |   | || |   | |   | |       /   )
(_____  )   | |   |  __)   |  _____)|  ___  || (\ \) |(_____)| |   | || |   | |   | |      /   /
      ) |   | |   | (      | (      | (   ) || | \   |       | | /\| || |   | |   | |     /   /
/\____) |   | |   | (____/\| )      | )   ( || )  \  |       | (_\ \ || (___) |___) (___ /   (_/\
\_______)   )_(   (_______/|/       |/     \||/    )_)       (____\/_)(_______)\_______/(_______/
