Question?Correct Answer?Answer Variants
According to a well-known proverb, 'an ounce of prevention' is worth what?2?A ton of insurance:A pound of cure:Two pounds of cough drops:Ten pounds of Tylenol
The word 'grand' is slang for what amount of money?1?$1,000:$1,000,000:$100:$1:$10,000:$100,000
According to a popular phrase, a noteworthy accomplishment is said to be 'nothing to' what?4?Cough on:Sell on eBay:Push over:Sneeze at
The word 'brunch' is formed from the combination of what two words?4?Bread & munch:Break & crunch:Back & hunch:Breakdast & lunch
According to a popular phrase, someone with a sharp memory is said to 'have a mind like a steel' what?1?Trap:Cage:Curtain:Rod
